module github.com/teamgram/teamgram-server

go 1.17

require (
	github.com/bwmarrin/snowflake v0.3.0
	github.com/chai2010/webp v1.1.1
	github.com/disintegration/imaging v1.6.2
	github.com/gogo/protobuf v1.3.2
	github.com/gorilla/websocket v1.4.2
	github.com/minio/minio-go/v7 v7.0.49
	github.com/nyaruka/phonenumbers v1.1.6
	github.com/oschwald/geoip2-golang v1.8.0
	github.com/stretchr/testify v1.8.2
	github.com/teamgram/marmota v0.1.16
	github.com/teamgram/proto v0.158.1-0.20230507074120-3ff0e0bfb059
	github.com/zeromicro/go-zero v1.4.5
	go.uber.org/atomic v1.9.0
	golang.org/x/net v0.7.0
	google.golang.org/grpc v1.53.0
	gopkg.in/check.v1 v1.0.0-20201130134442-10cb98267c6c
	mvdan.cc/xurls/v2 v2.4.0
)

require (
	cloud.google.com/go v0.107.0 // indirect
	github.com/PuerkitoBio/purell v1.1.1 // indirect
	github.com/PuerkitoBio/urlesc v0.0.0-20170810143723-de5bf2ad4578 // indirect
	github.com/Shopify/sarama v1.38.1 // indirect
	github.com/beorn7/perks v1.0.1 // indirect
	github.com/cenkalti/backoff/v4 v4.1.3 // indirect
	github.com/cespare/xxhash/v2 v2.2.0 // indirect
	github.com/coreos/go-semver v0.3.0 // indirect
	github.com/coreos/go-systemd/v22 v22.3.3-0.20220203105225-a9a7ef127534 // indirect
	github.com/davecgh/go-spew v1.1.1 // indirect
	github.com/dgryski/go-rendezvous v0.0.0-20200823014737-9f7001d12a5f // indirect
	github.com/dustin/go-humanize v1.0.1 // indirect
	github.com/eapache/go-resiliency v1.3.0 // indirect
	github.com/eapache/go-xerial-snappy v0.0.0-20230111030713-bf00bc1b83b6 // indirect
	github.com/eapache/queue v1.1.0 // indirect
	github.com/emicklei/go-restful v2.9.5+incompatible // indirect
	github.com/fatih/color v1.13.0 // indirect
	github.com/felixge/fgprof v0.9.3 // indirect
	github.com/fsnotify/fsnotify v1.5.4 // indirect
	github.com/go-logr/logr v1.2.3 // indirect
	github.com/go-logr/stdr v1.2.2 // indirect
	github.com/go-openapi/jsonpointer v0.19.5 // indirect
	github.com/go-openapi/jsonreference v0.19.6 // indirect
	github.com/go-openapi/swag v0.21.1 // indirect
	github.com/go-redis/redis/v8 v8.11.5 // indirect
	github.com/go-sql-driver/mysql v1.7.0 // indirect
	github.com/golang-jwt/jwt/v4 v4.4.3 // indirect
	github.com/golang/mock v1.6.0 // indirect
	github.com/golang/protobuf v1.5.2 // indirect
	github.com/golang/snappy v0.0.4 // indirect
	github.com/google/gnostic v0.5.7-v3refs // indirect
	github.com/google/go-cmp v0.5.9 // indirect
	github.com/google/gofuzz v1.2.0 // indirect
	github.com/google/pprof v0.0.0-20220520215854-d04f2422c8a1 // indirect
	github.com/google/uuid v1.3.0 // indirect
	github.com/grpc-ecosystem/grpc-gateway/v2 v2.11.3 // indirect
	github.com/hashicorp/errwrap v1.1.0 // indirect
	github.com/hashicorp/go-multierror v1.1.1 // indirect
	github.com/hashicorp/go-uuid v1.0.3 // indirect
	github.com/jcmturner/aescts/v2 v2.0.0 // indirect
	github.com/jcmturner/dnsutils/v2 v2.0.0 // indirect
	github.com/jcmturner/gofork v1.7.6 // indirect
	github.com/jcmturner/gokrb5/v8 v8.4.3 // indirect
	github.com/jcmturner/rpc/v2 v2.0.3 // indirect
	github.com/josharian/intern v1.0.0 // indirect
	github.com/json-iterator/go v1.1.12 // indirect
	github.com/klauspost/compress v1.15.15 // indirect
	github.com/klauspost/cpuid/v2 v2.2.3 // indirect
	github.com/kr/pretty v0.3.0 // indirect
	github.com/kr/text v0.2.0 // indirect
	github.com/mailru/easyjson v0.7.7 // indirect
	github.com/mattn/go-colorable v0.1.13 // indirect
	github.com/mattn/go-isatty v0.0.16 // indirect
	github.com/matttproud/golang_protobuf_extensions v1.0.2-0.20181231171920-c182affec369 // indirect
	github.com/minio/md5-simd v1.1.2 // indirect
	github.com/minio/sha256-simd v1.0.0 // indirect
	github.com/modern-go/concurrent v0.0.0-20180306012644-bacd9c7ef1dd // indirect
	github.com/modern-go/reflect2 v1.0.2 // indirect
	github.com/munnerz/goautoneg v0.0.0-20191010083416-a7dc8b61c822 // indirect
	github.com/onsi/gomega v1.19.0 // indirect
	github.com/openzipkin/zipkin-go v0.4.0 // indirect
	github.com/oschwald/maxminddb-golang v1.10.0 // indirect
	github.com/pelletier/go-toml/v2 v2.0.6 // indirect
	github.com/pierrec/lz4/v4 v4.1.17 // indirect
	github.com/pkg/errors v0.9.1 // indirect
	github.com/pmezard/go-difflib v1.0.0 // indirect
	github.com/prometheus/client_golang v1.13.0 // indirect
	github.com/prometheus/client_model v0.2.0 // indirect
	github.com/prometheus/common v0.37.0 // indirect
	github.com/prometheus/procfs v0.8.0 // indirect
	github.com/rcrowley/go-metrics v0.0.0-20201227073835-cf1acfcdf475 // indirect
	github.com/rogpeppe/go-internal v1.8.1 // indirect
	github.com/rs/xid v1.4.0 // indirect
	github.com/sirupsen/logrus v1.9.0 // indirect
	github.com/spaolacci/murmur3 v1.1.0 // indirect
	go.etcd.io/etcd/api/v3 v3.5.5 // indirect
	go.etcd.io/etcd/client/pkg/v3 v3.5.5 // indirect
	go.etcd.io/etcd/client/v3 v3.5.5 // indirect
	go.opentelemetry.io/otel v1.11.0 // indirect
	go.opentelemetry.io/otel/exporters/jaeger v1.11.0 // indirect
	go.opentelemetry.io/otel/exporters/otlp/internal/retry v1.11.0 // indirect
	go.opentelemetry.io/otel/exporters/otlp/otlptrace v1.11.0 // indirect
	go.opentelemetry.io/otel/exporters/otlp/otlptrace/otlptracegrpc v1.11.0 // indirect
	go.opentelemetry.io/otel/exporters/otlp/otlptrace/otlptracehttp v1.10.0 // indirect
	go.opentelemetry.io/otel/exporters/zipkin v1.11.0 // indirect
	go.opentelemetry.io/otel/sdk v1.11.0 // indirect
	go.opentelemetry.io/otel/trace v1.11.0 // indirect
	go.opentelemetry.io/proto/otlp v0.19.0 // indirect
	go.uber.org/automaxprocs v1.5.1 // indirect
	go.uber.org/multierr v1.8.0 // indirect
	go.uber.org/zap v1.21.0 // indirect
	golang.org/x/crypto v0.6.0 // indirect
	golang.org/x/image v0.0.0-20211028202545-6944b10bf410 // indirect
	golang.org/x/oauth2 v0.4.0 // indirect
	golang.org/x/sys v0.5.0 // indirect
	golang.org/x/term v0.5.0 // indirect
	golang.org/x/text v0.7.0 // indirect
	golang.org/x/time v0.3.0 // indirect
	google.golang.org/api v0.103.0 // indirect
	google.golang.org/appengine v1.6.7 // indirect
	google.golang.org/genproto v0.0.0-20230110181048-76db0878b65f // indirect
	google.golang.org/protobuf v1.28.1 // indirect
	gopkg.in/inf.v0 v0.9.1 // indirect
	gopkg.in/ini.v1 v1.67.0 // indirect
	gopkg.in/yaml.v2 v2.4.0 // indirect
	gopkg.in/yaml.v3 v3.0.1 // indirect
	k8s.io/api v0.24.2 // indirect
	k8s.io/apimachinery v0.24.2 // indirect
	k8s.io/client-go v0.24.2 // indirect
	k8s.io/klog/v2 v2.80.1 // indirect
	k8s.io/kube-openapi v0.0.0-20220413171646-5e7f5fdc6da6 // indirect
	k8s.io/utils v0.0.0-20221108210102-8e77b1f39fe2 // indirect
	sigs.k8s.io/json v0.0.0-20211208200746-9f7c6b3444d2 // indirect
	sigs.k8s.io/structured-merge-diff/v4 v4.2.1 // indirect
	sigs.k8s.io/yaml v1.3.0 // indirect
)

// replace github.com/teamgram/proto => ../proto
replace github.com/zeromicro/go-zero v1.4.5 => github.com/teamgram/go-zero v0.0.0-20230507122319-e160d05ace41

replace github.com/teamgram/teamgram-server/pkg/net2 => ./pkg/net2
